-------------------------------------------------------------------------------
Test set: com.xtaas.ml.classifier.service.GoogleClassifierUnitTest
-------------------------------------------------------------------------------
Tests run: 5, Failures: 0, Errors: 0, Skipped: 2, Time elapsed: 7.177 sec
